%YAML 1.1
%TAG !u! tag:unity3d.com,2011:
--- !u!114 &11400000
MonoBehaviour:
  m_ObjectHideFlags: 0
  m_CorrespondingSourceObject: {fileID: 0}
  m_PrefabInstance: {fileID: 0}
  m_PrefabAsset: {fileID: 0}
  m_GameObject: {fileID: 0}
  m_Enabled: 1
  m_EditorHideFlags: 0
  m_Script: {fileID: 11500000, guid: ebcaa5d27e6b2b046bdcf1e6d0452fee, type: 3}
  m_Name: Cannon Settings
  m_EditorClassIdentifier: 
  speedChangingForceMultiplier: 3
  pushForce: 55
